<?xml version="1.0" encoding="UTF-8" standalone="no"?>
<!-- Created with Inkscape (http://www.inkscape.org/) -->

<svg
   xmlns:dc="http://purl.org/dc/elements/1.1/"
   xmlns:cc="http://creativecommons.org/ns#"
   xmlns:rdf="http://www.w3.org/1999/02/22-rdf-syntax-ns#"
   xmlns:svg="http://www.w3.org/2000/svg"
   xmlns="http://www.w3.org/2000/svg"
   xmlns:sodipodi="http://sodipodi.sourceforge.net/DTD/sodipodi-0.dtd"
   xmlns:inkscape="http://www.inkscape.org/namespaces/inkscape"
   width="210mm"
   height="297mm"
   viewBox="0 0 210 297"
   version="1.1"
   id="svg8"
   inkscape:version="0.92.3 (2405546, 2018-03-11)"
   sodipodi:docname="drawing-1.svg.2018_04_22_19_31_22.0.svg"
   inkscape:export-filename="D:\candr\UnityProjects\LD41-CBRUR\Assets\Resources\Sprites\tilecards.png"
   inkscape:export-xdpi="243.44"
   inkscape:export-ydpi="243.44">
  <defs
     id="defs2" />
  <sodipodi:namedview
     id="base"
     pagecolor="#ffffff"
     bordercolor="#666666"
     borderopacity="1.0"
     inkscape:pageopacity="0.0"
     inkscape:pageshadow="2"
     inkscape:zoom="1"
     inkscape:cx="282.83662"
     inkscape:cy="454.75001"
     inkscape:document-units="mm"
     inkscape:current-layer="layer1"
     showgrid="false"
     inkscape:window-width="1920"
     inkscape:window-height="1137"
     inkscape:window-x="-8"
     inkscape:window-y="-8"
     inkscape:window-maximized="1"
     showguides="false" />
  <metadata
     id="metadata5">
    <rdf:RDF>
      <cc:Work
         rdf:about="">
        <dc:format>image/svg+xml</dc:format>
        <dc:type
           rdf:resource="http://purl.org/dc/dcmitype/StillImage" />
        <dc:title />
      </cc:Work>
    </rdf:RDF>
  </metadata>
  <g
     inkscape:label="Layer 1"
     inkscape:groupmode="layer"
     id="layer1">
    <rect
       inkscape:export-ydpi="307.07611"
       inkscape:export-xdpi="307.07611"
       ry="3.0132201"
       y="167.75583"
       x="78.482368"
       height="17.045345"
       width="16.780764"
       id="rect4827"
       style="opacity:1;fill:none;fill-opacity:1;fill-rule:nonzero;stroke:none;stroke-width:0.15256965;stroke-linecap:round;stroke-miterlimit:4;stroke-dasharray:none;stroke-opacity:1" />
    <rect
       style="opacity:1;fill:none;fill-opacity:1;fill-rule:nonzero;stroke:none;stroke-width:0.15256965;stroke-linecap:round;stroke-miterlimit:4;stroke-dasharray:none;stroke-opacity:1"
       id="rect4829"
       width="16.780764"
       height="17.045345"
       x="61.701607"
       y="167.75583"
       ry="3.0132201"
       inkscape:export-xdpi="307.07611"
       inkscape:export-ydpi="307.07611" />
    <rect
       style="opacity:1;fill:none;fill-opacity:1;fill-rule:nonzero;stroke:none;stroke-width:0.15256965;stroke-linecap:round;stroke-miterlimit:4;stroke-dasharray:none;stroke-opacity:1"
       id="rect4831"
       width="16.780764"
       height="17.045345"
       x="44.920845"
       y="167.75583"
       ry="3.0132201"
       inkscape:export-xdpi="307.07611"
       inkscape:export-ydpi="307.07611" />
    <rect
       inkscape:export-ydpi="307.07611"
       inkscape:export-xdpi="307.07611"
       ry="3.0132201"
       y="167.75583"
       x="28.140083"
       height="17.045345"
       width="16.780764"
       id="rect4833"
       style="opacity:1;fill:none;fill-opacity:1;fill-rule:nonzero;stroke:none;stroke-width:0.15256965;stroke-linecap:round;stroke-miterlimit:4;stroke-dasharray:none;stroke-opacity:1" />
    <rect
       style="opacity:1;fill:#ffffff;fill-opacity:1;fill-rule:nonzero;stroke:#000000;stroke-width:0.26252961;stroke-linecap:round;stroke-miterlimit:4;stroke-dasharray:none;stroke-opacity:1"
       id="rect815"
       width="50.802052"
       height="16.670803"
       x="26.467304"
       y="124.22879"
       ry="2.9470098"
       inkscape:export-xdpi="307.07611"
       inkscape:export-ydpi="307.07611" />
    <rect
       ry="2.9555917"
       y="90.20137"
       x="26.467495"
       height="16.719351"
       width="33.652683"
       id="rect817"
       style="opacity:1;fill:#ffffff;fill-opacity:1;fill-rule:nonzero;stroke:#000000;stroke-width:0.21398284;stroke-linecap:round;stroke-miterlimit:4;stroke-dasharray:none;stroke-opacity:1"
       inkscape:export-xdpi="307.07611"
       inkscape:export-ydpi="307.07611" />
    <rect
       style="opacity:1;fill:#ffffff;fill-opacity:1;fill-rule:nonzero;stroke:#000000;stroke-width:0.15139154;stroke-linecap:round;stroke-miterlimit:4;stroke-dasharray:none;stroke-opacity:1"
       id="rect819"
       width="16.781942"
       height="16.781942"
       x="60.118752"
       y="73.156265"
       ry="2.9666564"
       inkscape:export-xdpi="307.07611"
       inkscape:export-ydpi="307.07611" />
    <rect
       style="opacity:1;fill:#ffffff;fill-opacity:1;fill-rule:nonzero;stroke:#000000;stroke-width:0.21398284;stroke-linecap:round;stroke-miterlimit:4;stroke-dasharray:none;stroke-opacity:1"
       id="rect832"
       width="33.652683"
       height="16.719351"
       x="43.248249"
       y="39.240429"
       ry="2.9555917"
       inkscape:export-xdpi="307.07611"
       inkscape:export-ydpi="307.07611" />
    <rect
       ry="2.9666564"
       y="73.061638"
       x="26.06797"
       height="16.781942"
       width="16.781942"
       id="rect834"
       style="opacity:1;fill:#ffffff;fill-opacity:1;fill-rule:nonzero;stroke:#000000;stroke-width:0.15139154;stroke-linecap:round;stroke-miterlimit:4;stroke-dasharray:none;stroke-opacity:1"
       inkscape:export-xdpi="307.07611"
       inkscape:export-ydpi="307.07611" />
    <rect
       style="opacity:1;fill:#ffffff;fill-opacity:1;fill-rule:nonzero;stroke:#000000;stroke-width:0.15139154;stroke-linecap:round;stroke-miterlimit:4;stroke-dasharray:none;stroke-opacity:1"
       id="rect836"
       width="16.781942"
       height="16.781942"
       x="26.467741"
       y="107.18388"
       ry="2.9666564"
       inkscape:export-xdpi="307.07611"
       inkscape:export-ydpi="307.07611" />
    <rect
       style="opacity:1;fill:#decd87;fill-opacity:1;fill-rule:nonzero;stroke:#000000;stroke-width:0.3175;stroke-linecap:round;stroke-miterlimit:4;stroke-dasharray:none;stroke-opacity:1"
       id="rect901"
       width="60.959999"
       height="20.32"
       x="141.32259"
       y="7.8442488"
       ry="3.5921025"
       inkscape:export-xdpi="307.07611"
       inkscape:export-ydpi="307.07611" />
    <rect
       ry="3.5921025"
       y="7.8442488"
       x="141.32259"
       height="20.32"
       width="60.959999"
       id="rect903"
       style="opacity:1;fill:#decd87;fill-opacity:1;fill-rule:nonzero;stroke:#000000;stroke-width:0.3175;stroke-linecap:round;stroke-miterlimit:4;stroke-dasharray:none;stroke-opacity:1"
       inkscape:export-xdpi="307.07611"
       inkscape:export-ydpi="307.07611" />
    <rect
       inkscape:export-ydpi="307.07611"
       inkscape:export-xdpi="307.07611"
       style="opacity:1;fill:#decd87;fill-opacity:1;fill-rule:nonzero;stroke:#000000;stroke-width:0.3175;stroke-linecap:round;stroke-miterlimit:4;stroke-dasharray:none;stroke-opacity:1"
       id="rect905"
       width="60.959999"
       height="20.32"
       x="141.32259"
       y="7.8442488"
       ry="3.5921025" />
    <rect
       ry="3.5921025"
       y="28.164249"
       x="141.32259"
       height="20.32"
       width="60.959999"
       id="rect907"
       style="opacity:1;fill:#ffffff;fill-opacity:1;fill-rule:nonzero;stroke:#000000;stroke-width:0.3175;stroke-linecap:round;stroke-miterlimit:4;stroke-dasharray:none;stroke-opacity:1"
       inkscape:export-xdpi="307.07611"
       inkscape:export-ydpi="307.07611" />
    <path
       style="opacity:1;fill:#f9f9f9;fill-opacity:1;fill-rule:nonzero;stroke:#000000;stroke-width:0.22303772;stroke-linecap:round;stroke-miterlimit:4;stroke-dasharray:none;stroke-opacity:1"
       d="m 144.88416,28.117008 h 22.72572 c 1.99927,0 22.12964,8.635885 22.12964,8.635885 l -6.08542,3.936442 c -1.67868,1.08588 -14.04495,7.842134 -16.04422,7.842134 h -22.72572 c -1.99927,0 -3.6088,-1.609525 -3.6088,-3.608801 V 31.72581 c 0,-1.999276 1.60953,-3.608802 3.6088,-3.608802 z"
       id="rect913"
       inkscape:connector-curvature="0"
       sodipodi:nodetypes="sscssssss"
       inkscape:export-xdpi="307.07611"
       inkscape:export-ydpi="307.07611" />
    <path
       style="opacity:1;fill:#ececec;fill-opacity:1;fill-rule:nonzero;stroke:#000000;stroke-width:0.19375771;stroke-linecap:round;stroke-miterlimit:4;stroke-dasharray:none;stroke-opacity:1"
       d="m 144.87469,28.10239 h 15.33723 c 2.00214,0 16.30217,7.405854 14.72647,8.64106 l -7.40833,5.807454 c 0,0 -5.316,5.995227 -7.31814,5.995227 h -15.33723 c -2.00214,0 -3.61398,-1.611834 -3.61398,-3.613977 V 31.716367 c 0,-2.002143 1.61184,-3.613977 3.61398,-3.613977 z"
       id="rect911"
       inkscape:connector-curvature="0"
       sodipodi:nodetypes="ssscsssss"
       inkscape:export-xdpi="307.07611"
       inkscape:export-ydpi="307.07611" />
    <path
       style="opacity:1;fill:#cccccc;fill-opacity:1;fill-rule:nonzero;stroke:#000000;stroke-width:0.15690637;stroke-linecap:round;stroke-miterlimit:4;stroke-dasharray:none;stroke-opacity:1"
       d="m 144.86279,28.083958 h 7.53035 c 2.00575,0 12.76041,8.338084 11.29341,9.705908 l -7.67292,7.154193 c -1.467,1.367827 -1.61474,3.620491 -3.62049,3.620491 h -7.53035 c -2.00576,0 -3.6205,-1.614739 -3.6205,-3.620491 v -13.23961 c 0,-2.005752 1.61474,-3.620491 3.6205,-3.620491 z"
       id="rect909"
       inkscape:connector-curvature="0"
       sodipodi:nodetypes="sssssssss"
       inkscape:export-xdpi="307.07611"
       inkscape:export-ydpi="307.07611" />
    <rect
       inkscape:export-ydpi="307.07611"
       inkscape:export-xdpi="307.07611"
       ry="2.9666564"
       y="56.110916"
       x="60.118763"
       height="16.781942"
       width="16.781946"
       id="rect919"
       style="opacity:1;fill:#ffffff;fill-opacity:1;fill-rule:nonzero;stroke:#000000;stroke-width:0.15139154;stroke-linecap:round;stroke-miterlimit:4;stroke-dasharray:none;stroke-opacity:1" />
    <rect
       inkscape:export-ydpi="307.07611"
       inkscape:export-xdpi="307.07611"
       ry="3.0132201"
       y="59.142399"
       x="182.76022"
       height="17.045345"
       width="16.780764"
       id="rect921"
       style="opacity:1;fill:#ffffff;fill-opacity:1;fill-rule:nonzero;stroke:#000000;stroke-width:0.15256965;stroke-linecap:round;stroke-miterlimit:4;stroke-dasharray:none;stroke-opacity:1" />
    <circle
       inkscape:export-ydpi="307.07611"
       inkscape:export-xdpi="307.07611"
       r="3.8594518"
       cy="84.710434"
       cx="191.1506"
       id="circle923"
       style="opacity:1;fill:#0000aa;fill-opacity:1;fill-rule:nonzero;stroke:#000000;stroke-width:0.26458332;stroke-linecap:round;stroke-miterlimit:4;stroke-dasharray:none;stroke-opacity:1" />
    <circle
       inkscape:export-ydpi="307.07611"
       inkscape:export-xdpi="307.07611"
       style="opacity:1;fill:#5f5fd3;fill-opacity:1;fill-rule:nonzero;stroke:#000000;stroke-width:0.26458332;stroke-linecap:round;stroke-miterlimit:4;stroke-dasharray:none;stroke-opacity:1"
       id="circle925"
       cx="191.1506"
       cy="101.75577"
       r="3.8594518" />
    <circle
       inkscape:export-ydpi="307.07611"
       inkscape:export-xdpi="307.07611"
       r="2.0081429"
       cy="100.55904"
       cx="188.27846"
       id="circle927"
       style="opacity:1;fill:#5f5fd3;fill-opacity:1;fill-rule:nonzero;stroke:#000000;stroke-width:0.13766751;stroke-linecap:round;stroke-miterlimit:4;stroke-dasharray:none;stroke-opacity:1" />
    <circle
       inkscape:export-ydpi="307.07611"
       inkscape:export-xdpi="307.07611"
       style="opacity:1;fill:#5f5fd3;fill-opacity:1;fill-rule:nonzero;stroke:#000000;stroke-width:0.13766751;stroke-linecap:round;stroke-miterlimit:4;stroke-dasharray:none;stroke-opacity:1"
       id="circle929"
       cx="191.74896"
       cy="104.7476"
       r="2.0081429" />
    <circle
       inkscape:export-ydpi="307.07611"
       inkscape:export-xdpi="307.07611"
       r="2.8180907"
       cy="100.55904"
       cx="193.66374"
       id="circle931"
       style="opacity:1;fill:#5f5fd3;fill-opacity:1;fill-rule:nonzero;stroke:#000000;stroke-width:0.19319317;stroke-linecap:round;stroke-miterlimit:4;stroke-dasharray:none;stroke-opacity:1" />
    <path
       inkscape:export-ydpi="307.07611"
       inkscape:export-xdpi="307.07611"
       sodipodi:nodetypes="sssss"
       inkscape:connector-curvature="0"
       id="path933"
       d="m 194.89039,117.24539 c 0,2.13152 -1.60826,5.4152 -3.73978,5.4152 -2.13151,0 -4.69716,-0.17219 -4.69716,-2.3037 0,-2.13152 2.08696,-6.97095 4.69716,-5.4152 1.83097,1.0913 3.73978,0.17219 3.73978,2.3037 z"
       style="opacity:1;fill:#999999;fill-opacity:1;fill-rule:nonzero;stroke:#000000;stroke-width:0.26458332;stroke-linecap:round;stroke-miterlimit:4;stroke-dasharray:none;stroke-opacity:1" />
    <path
       inkscape:export-ydpi="307.07611"
       inkscape:export-xdpi="307.07611"
       style="opacity:1;fill:#999999;fill-opacity:1;fill-rule:nonzero;stroke:#000000;stroke-width:0.15602422;stroke-linecap:round;stroke-miterlimit:4;stroke-dasharray:none;stroke-opacity:1"
       d="m 195.72851,122.2056 c -1.22696,0.66785 -3.52508,0.94717 -4.06579,-0.0462 -0.5407,-0.99337 -1.09243,-2.24301 0.13452,-2.91086 1.22696,-0.66785 4.54205,-1.21153 4.30865,0.49238 -0.16371,1.19523 0.84957,1.79684 -0.37738,2.46468 z"
       id="path935"
       inkscape:connector-curvature="0"
       sodipodi:nodetypes="sssss" />
    <path
       inkscape:export-ydpi="307.07611"
       inkscape:export-xdpi="307.07611"
       sodipodi:nodetypes="scsss"
       inkscape:connector-curvature="0"
       id="path937"
       d="m 195.01006,135.84649 c 0,2.13152 -1.72793,3.85945 -3.85945,3.85945 -2.13151,0 -3.85945,-1.72793 -3.85945,-3.85945 0,-2.13152 1.72794,-2.3037 3.85945,-2.3037 2.13152,0 3.85945,0.17218 3.85945,2.3037 z"
       style="opacity:1;fill:#2ad4ff;fill-opacity:1;fill-rule:nonzero;stroke:#000000;stroke-width:0.26458332;stroke-linecap:round;stroke-miterlimit:4;stroke-dasharray:none;stroke-opacity:1" />
    <rect
       inkscape:export-ydpi="307.07611"
       inkscape:export-xdpi="307.07611"
       style="opacity:1;fill:#ffffff;fill-opacity:1;fill-rule:nonzero;stroke:#000000;stroke-width:0.15139154;stroke-linecap:round;stroke-miterlimit:4;stroke-dasharray:none;stroke-opacity:1"
       id="rect939"
       width="16.781942"
       height="16.781942"
       x="43.248497"
       y="22.195328"
       ry="2.9666564" />
    <rect
       style="opacity:1;fill:#ffffff;fill-opacity:1;fill-rule:nonzero;stroke:#000000;stroke-width:0.15256965;stroke-linecap:round;stroke-miterlimit:4;stroke-dasharray:none;stroke-opacity:1"
       id="rect949"
       width="16.780764"
       height="17.045345"
       x="182.76022"
       y="144.36914"
       ry="3.0132201"
       inkscape:export-xdpi="307.07611"
       inkscape:export-ydpi="307.07611" />
    <rect
       style="opacity:1;fill:#ffffff;fill-opacity:1;fill-rule:nonzero;stroke:#000000;stroke-width:0.15256965;stroke-linecap:round;stroke-miterlimit:4;stroke-dasharray:none;stroke-opacity:1"
       id="rect951"
       width="16.780764"
       height="17.045345"
       x="165.97946"
       y="59.142399"
       ry="3.0132201"
       inkscape:export-xdpi="307.07611"
       inkscape:export-ydpi="307.07611" />
    <circle
       style="opacity:1;fill:#aa00d4;fill-opacity:1;fill-rule:nonzero;stroke:#000000;stroke-width:0.26458332;stroke-linecap:round;stroke-miterlimit:4;stroke-dasharray:none;stroke-opacity:1"
       id="circle953"
       cx="174.36984"
       cy="84.710434"
       r="3.8594518"
       inkscape:export-xdpi="307.07611"
       inkscape:export-ydpi="307.07611" />
    <circle
       r="3.8594518"
       cy="101.75577"
       cx="174.36984"
       id="circle955"
       style="opacity:1;fill:#ffdd55;fill-opacity:1;fill-rule:nonzero;stroke:#000000;stroke-width:0.26458332;stroke-linecap:round;stroke-miterlimit:4;stroke-dasharray:none;stroke-opacity:1"
       inkscape:export-xdpi="307.07611"
       inkscape:export-ydpi="307.07611" />
    <circle
       style="opacity:1;fill:#ffdd55;fill-opacity:1;fill-rule:nonzero;stroke:#000000;stroke-width:0.13766751;stroke-linecap:round;stroke-miterlimit:4;stroke-dasharray:none;stroke-opacity:1"
       id="circle957"
       cx="171.4977"
       cy="100.55904"
       r="2.0081429"
       inkscape:export-xdpi="307.07611"
       inkscape:export-ydpi="307.07611" />
    <circle
       r="2.0081429"
       cy="104.7476"
       cx="174.9682"
       id="circle959"
       style="opacity:1;fill:#ffdd55;fill-opacity:1;fill-rule:nonzero;stroke:#000000;stroke-width:0.13766751;stroke-linecap:round;stroke-miterlimit:4;stroke-dasharray:none;stroke-opacity:1"
       inkscape:export-xdpi="307.07611"
       inkscape:export-ydpi="307.07611" />
    <circle
       style="opacity:1;fill:#ffdd55;fill-opacity:1;fill-rule:nonzero;stroke:#000000;stroke-width:0.19319317;stroke-linecap:round;stroke-miterlimit:4;stroke-dasharray:none;stroke-opacity:1"
       id="circle961"
       cx="176.88298"
       cy="100.55904"
       r="2.8180907"
       inkscape:export-xdpi="307.07611"
       inkscape:export-ydpi="307.07611" />
    <path
       style="opacity:1;fill:#a05a2c;fill-opacity:1;fill-rule:nonzero;stroke:#000000;stroke-width:0.26458332;stroke-linecap:round;stroke-miterlimit:4;stroke-dasharray:none;stroke-opacity:1"
       d="m 178.10963,117.24539 c 0,2.13152 -1.60826,5.4152 -3.73978,5.4152 -2.13151,0 -4.69716,-0.17219 -4.69716,-2.3037 0,-2.13152 2.08696,-6.97095 4.69716,-5.4152 1.83097,1.0913 3.73978,0.17219 3.73978,2.3037 z"
       id="path963"
       inkscape:connector-curvature="0"
       sodipodi:nodetypes="sssss"
       inkscape:export-xdpi="307.07611"
       inkscape:export-ydpi="307.07611" />
    <path
       sodipodi:nodetypes="sssss"
       inkscape:connector-curvature="0"
       id="path965"
       d="m 178.94775,122.2056 c -1.22696,0.66785 -3.52508,0.94717 -4.06579,-0.0462 -0.5407,-0.99337 -1.09243,-2.24301 0.13452,-2.91086 1.22696,-0.66785 4.54205,-1.21153 4.30865,0.49238 -0.16371,1.19523 0.84957,1.79684 -0.37738,2.46468 z"
       style="opacity:1;fill:#c87137;fill-opacity:1;fill-rule:nonzero;stroke:#000000;stroke-width:0.15602422;stroke-linecap:round;stroke-miterlimit:4;stroke-dasharray:none;stroke-opacity:1"
       inkscape:export-xdpi="307.07611"
       inkscape:export-ydpi="307.07611" />
    <path
       style="opacity:1;fill:#ddff55;fill-opacity:1;fill-rule:nonzero;stroke:#000000;stroke-width:0.26458332;stroke-linecap:round;stroke-miterlimit:4;stroke-dasharray:none;stroke-opacity:1"
       d="m 178.2293,135.84649 c 0,2.13152 -1.72793,3.85945 -3.85945,3.85945 -2.13151,0 -3.85945,-1.72793 -3.85945,-3.85945 0,-2.13152 1.72794,-2.3037 3.85945,-2.3037 2.13152,0 3.85945,0.17218 3.85945,2.3037 z"
       id="path967"
       inkscape:connector-curvature="0"
       sodipodi:nodetypes="scsss"
       inkscape:export-xdpi="307.07611"
       inkscape:export-ydpi="307.07611" />
    <rect
       inkscape:export-ydpi="307.07611"
       inkscape:export-xdpi="307.07611"
       ry="3.0132201"
       y="144.36914"
       x="165.97946"
       height="17.045345"
       width="16.780764"
       id="rect969"
       style="opacity:1;fill:#ffffff;fill-opacity:1;fill-rule:nonzero;stroke:#000000;stroke-width:0.15256965;stroke-linecap:round;stroke-miterlimit:4;stroke-dasharray:none;stroke-opacity:1" />
    <rect
       style="opacity:1;fill:#ffffff;fill-opacity:1;fill-rule:nonzero;stroke:#000000;stroke-width:0.15256965;stroke-linecap:round;stroke-miterlimit:4;stroke-dasharray:none;stroke-opacity:1"
       id="rect971"
       width="16.780764"
       height="17.045345"
       x="149.1987"
       y="59.142399"
       ry="3.0132201"
       inkscape:export-xdpi="307.07611"
       inkscape:export-ydpi="307.07611" />
    <circle
       style="opacity:1;fill:#c87137;fill-opacity:1;fill-rule:nonzero;stroke:#000000;stroke-width:0.26458332;stroke-linecap:round;stroke-miterlimit:4;stroke-dasharray:none;stroke-opacity:1"
       id="circle973"
       cx="157.58908"
       cy="84.710434"
       r="3.8594518"
       inkscape:export-xdpi="307.07611"
       inkscape:export-ydpi="307.07611" />
    <circle
       r="3.8594518"
       cy="101.75577"
       cx="157.58908"
       id="circle975"
       style="opacity:1;fill:#ff7f2a;fill-opacity:1;fill-rule:nonzero;stroke:#000000;stroke-width:0.26458332;stroke-linecap:round;stroke-miterlimit:4;stroke-dasharray:none;stroke-opacity:1"
       inkscape:export-xdpi="307.07611"
       inkscape:export-ydpi="307.07611" />
    <circle
       style="opacity:1;fill:#ff7f2a;fill-opacity:1;fill-rule:nonzero;stroke:#000000;stroke-width:0.13766751;stroke-linecap:round;stroke-miterlimit:4;stroke-dasharray:none;stroke-opacity:1"
       id="circle977"
       cx="154.71693"
       cy="100.55904"
       r="2.0081429"
       inkscape:export-xdpi="307.07611"
       inkscape:export-ydpi="307.07611" />
    <circle
       r="2.0081429"
       cy="104.7476"
       cx="158.18744"
       id="circle979"
       style="opacity:1;fill:#ff7f2a;fill-opacity:1;fill-rule:nonzero;stroke:#000000;stroke-width:0.13766751;stroke-linecap:round;stroke-miterlimit:4;stroke-dasharray:none;stroke-opacity:1"
       inkscape:export-xdpi="307.07611"
       inkscape:export-ydpi="307.07611" />
    <circle
       style="opacity:1;fill:#ff7f2a;fill-opacity:1;fill-rule:nonzero;stroke:#000000;stroke-width:0.19319317;stroke-linecap:round;stroke-miterlimit:4;stroke-dasharray:none;stroke-opacity:1"
       id="circle981"
       cx="160.10222"
       cy="100.55904"
       r="2.8180907"
       inkscape:export-xdpi="307.07611"
       inkscape:export-ydpi="307.07611" />
    <path
       style="opacity:1;fill:#666666;fill-opacity:1;fill-rule:nonzero;stroke:#000000;stroke-width:0.26458332;stroke-linecap:round;stroke-miterlimit:4;stroke-dasharray:none;stroke-opacity:1"
       d="m 161.32887,117.24539 c 0,2.13152 -1.60826,5.4152 -3.73978,5.4152 -2.13151,0 -4.69716,-0.17219 -4.69716,-2.3037 0,-2.13152 2.08696,-6.97095 4.69716,-5.4152 1.83097,1.0913 3.73978,0.17219 3.73978,2.3037 z"
       id="path983"
       inkscape:connector-curvature="0"
       sodipodi:nodetypes="sssss"
       inkscape:export-xdpi="307.07611"
       inkscape:export-ydpi="307.07611" />
    <path
       sodipodi:nodetypes="sssss"
       inkscape:connector-curvature="0"
       id="path985"
       d="m 162.16699,122.2056 c -1.22696,0.66785 -3.52508,0.94717 -4.06579,-0.0462 -0.5407,-0.99337 -1.09243,-2.24301 0.13452,-2.91086 1.22696,-0.66785 4.54205,-1.21153 4.30865,0.49238 -0.16371,1.19523 0.84957,1.79684 -0.37738,2.46468 z"
       style="opacity:1;fill:#999999;fill-opacity:1;fill-rule:nonzero;stroke:#000000;stroke-width:0.15602422;stroke-linecap:round;stroke-miterlimit:4;stroke-dasharray:none;stroke-opacity:1"
       inkscape:export-xdpi="307.07611"
       inkscape:export-ydpi="307.07611" />
    <path
       style="opacity:1;fill:#ff00ff;fill-opacity:1;fill-rule:nonzero;stroke:#000000;stroke-width:0.26458332;stroke-linecap:round;stroke-miterlimit:4;stroke-dasharray:none;stroke-opacity:1"
       d="m 161.44854,135.84649 c 0,2.13152 -1.72793,3.85945 -3.85945,3.85945 -2.13151,0 -3.85945,-1.72793 -3.85945,-3.85945 0,-2.13152 1.72794,-2.3037 3.85945,-2.3037 2.13152,0 3.85945,0.17218 3.85945,2.3037 z"
       id="path987"
       inkscape:connector-curvature="0"
       sodipodi:nodetypes="scsss"
       inkscape:export-xdpi="307.07611"
       inkscape:export-ydpi="307.07611" />
    <rect
       inkscape:export-ydpi="307.07611"
       inkscape:export-xdpi="307.07611"
       ry="3.0132201"
       y="144.36914"
       x="149.1987"
       height="17.045345"
       width="16.780764"
       id="rect989"
       style="opacity:1;fill:#ffffff;fill-opacity:1;fill-rule:nonzero;stroke:#000000;stroke-width:0.15256965;stroke-linecap:round;stroke-miterlimit:4;stroke-dasharray:none;stroke-opacity:1" />
    <rect
       inkscape:export-ydpi="307.07611"
       inkscape:export-xdpi="307.07611"
       ry="3.0132201"
       y="59.142399"
       x="132.41794"
       height="17.045345"
       width="16.780764"
       id="rect991"
       style="opacity:1;fill:#ffffff;fill-opacity:1;fill-rule:nonzero;stroke:#000000;stroke-width:0.15256965;stroke-linecap:round;stroke-miterlimit:4;stroke-dasharray:none;stroke-opacity:1" />
    <circle
       inkscape:export-ydpi="307.07611"
       inkscape:export-xdpi="307.07611"
       r="3.8594518"
       cy="84.710434"
       cx="140.80832"
       id="circle993"
       style="opacity:1;fill:#ffcc00;fill-opacity:1;fill-rule:nonzero;stroke:#000000;stroke-width:0.26458332;stroke-linecap:round;stroke-miterlimit:4;stroke-dasharray:none;stroke-opacity:1" />
    <circle
       inkscape:export-ydpi="307.07611"
       inkscape:export-xdpi="307.07611"
       style="opacity:1;fill:#008000;fill-opacity:1;fill-rule:nonzero;stroke:#000000;stroke-width:0.26458332;stroke-linecap:round;stroke-miterlimit:4;stroke-dasharray:none;stroke-opacity:1"
       id="circle995"
       cx="140.80832"
       cy="101.75577"
       r="3.8594518" />
    <circle
       inkscape:export-ydpi="307.07611"
       inkscape:export-xdpi="307.07611"
       r="2.0081429"
       cy="100.55904"
       cx="137.93617"
       id="circle997"
       style="opacity:1;fill:#008000;fill-opacity:1;fill-rule:nonzero;stroke:#000000;stroke-width:0.13766751;stroke-linecap:round;stroke-miterlimit:4;stroke-dasharray:none;stroke-opacity:1" />
    <circle
       inkscape:export-ydpi="307.07611"
       inkscape:export-xdpi="307.07611"
       style="opacity:1;fill:#008000;fill-opacity:1;fill-rule:nonzero;stroke:#000000;stroke-width:0.13766751;stroke-linecap:round;stroke-miterlimit:4;stroke-dasharray:none;stroke-opacity:1"
       id="circle999"
       cx="141.40668"
       cy="104.7476"
       r="2.0081429" />
    <circle
       inkscape:export-ydpi="307.07611"
       inkscape:export-xdpi="307.07611"
       r="2.8180907"
       cy="100.55904"
       cx="143.32146"
       id="circle1001"
       style="opacity:1;fill:#008000;fill-opacity:1;fill-rule:nonzero;stroke:#000000;stroke-width:0.19319317;stroke-linecap:round;stroke-miterlimit:4;stroke-dasharray:none;stroke-opacity:1" />
    <path
       inkscape:export-ydpi="307.07611"
       inkscape:export-xdpi="307.07611"
       sodipodi:nodetypes="sssss"
       inkscape:connector-curvature="0"
       id="path1003"
       d="m 144.54811,117.24539 c 0,2.13152 -1.60826,5.4152 -3.73978,5.4152 -2.13151,0 -4.69716,-0.17219 -4.69716,-2.3037 0,-2.13152 2.08696,-6.97095 4.69716,-5.4152 1.83097,1.0913 3.73978,0.17219 3.73978,2.3037 z"
       style="opacity:1;fill:#999999;fill-opacity:1;fill-rule:nonzero;stroke:#000000;stroke-width:0.26458332;stroke-linecap:round;stroke-miterlimit:4;stroke-dasharray:none;stroke-opacity:1" />
    <path
       inkscape:export-ydpi="307.07611"
       inkscape:export-xdpi="307.07611"
       style="opacity:1;fill:#b3b3b3;fill-opacity:1;fill-rule:nonzero;stroke:#000000;stroke-width:0.15602422;stroke-linecap:round;stroke-miterlimit:4;stroke-dasharray:none;stroke-opacity:1"
       d="m 145.38623,122.2056 c -1.22696,0.66785 -3.52508,0.94717 -4.06579,-0.0462 -0.5407,-0.99337 -1.09243,-2.24301 0.13452,-2.91086 1.22696,-0.66785 4.54205,-1.21153 4.30865,0.49238 -0.16371,1.19523 0.84957,1.79684 -0.37738,2.46468 z"
       id="path1005"
       inkscape:connector-curvature="0"
       sodipodi:nodetypes="sssss" />
    <path
       inkscape:export-ydpi="307.07611"
       inkscape:export-xdpi="307.07611"
       sodipodi:nodetypes="scsss"
       inkscape:connector-curvature="0"
       id="path1007"
       d="m 144.66778,135.84649 c 0,2.13152 -1.72793,3.85945 -3.85945,3.85945 -2.13151,0 -3.85945,-1.72793 -3.85945,-3.85945 0,-2.13152 1.72794,-2.3037 3.85945,-2.3037 2.13152,0 3.85945,0.17218 3.85945,2.3037 z"
       style="opacity:1;fill:#ff2a2a;fill-opacity:1;fill-rule:nonzero;stroke:#000000;stroke-width:0.26458332;stroke-linecap:round;stroke-miterlimit:4;stroke-dasharray:none;stroke-opacity:1" />
    <rect
       style="opacity:1;fill:#ffffff;fill-opacity:1;fill-rule:nonzero;stroke:#000000;stroke-width:0.15256965;stroke-linecap:round;stroke-miterlimit:4;stroke-dasharray:none;stroke-opacity:1"
       id="rect1009"
       width="16.780764"
       height="17.045345"
       x="132.41794"
       y="144.36914"
       ry="3.0132201"
       inkscape:export-xdpi="307.07611"
       inkscape:export-ydpi="307.07611" />
    <rect
       style="opacity:1;fill:#ffffff;fill-opacity:1;fill-rule:nonzero;stroke:#000000;stroke-width:0.15256965;stroke-linecap:round;stroke-miterlimit:4;stroke-dasharray:none;stroke-opacity:1"
       id="rect4714"
       width="16.780764"
       height="17.045345"
       x="78.482368"
       y="150.71048"
       ry="3.0132201"
       inkscape:export-xdpi="307.07611"
       inkscape:export-ydpi="307.07611" />
    <path
       style="opacity:1;fill:#999999;fill-opacity:1;fill-rule:nonzero;stroke:#000000;stroke-width:0.26458332;stroke-linecap:round;stroke-miterlimit:4;stroke-dasharray:none;stroke-opacity:1"
       d="m 90.612536,208.81348 c 0,2.13152 -1.60826,5.4152 -3.73978,5.4152 -2.13151,0 -4.69716,-0.17219 -4.69716,-2.3037 0,-2.13152 2.08696,-6.97095 4.69716,-5.4152 1.83097,1.0913 3.73978,0.17219 3.73978,2.3037 z"
       id="path4726"
       inkscape:connector-curvature="0"
       sodipodi:nodetypes="sssss"
       inkscape:export-xdpi="307.07611"
       inkscape:export-ydpi="307.07611" />
    <path
       sodipodi:nodetypes="sssss"
       inkscape:connector-curvature="0"
       id="path4728"
       d="m 91.450656,213.77369 c -1.22696,0.66785 -3.52508,0.94717 -4.06579,-0.0462 -0.5407,-0.99337 -1.09243,-2.24301 0.13452,-2.91086 1.22696,-0.66785 4.54205,-1.21153 4.30865,0.49238 -0.16371,1.19523 0.84957,1.79684 -0.37738,2.46468 z"
       style="opacity:1;fill:#999999;fill-opacity:1;fill-rule:nonzero;stroke:#000000;stroke-width:0.15602422;stroke-linecap:round;stroke-miterlimit:4;stroke-dasharray:none;stroke-opacity:1"
       inkscape:export-xdpi="307.07611"
       inkscape:export-ydpi="307.07611" />
    <path
       style="opacity:1;fill:#2ad4ff;fill-opacity:1;fill-rule:nonzero;stroke:#000000;stroke-width:0.26458332;stroke-linecap:round;stroke-miterlimit:4;stroke-dasharray:none;stroke-opacity:1"
       d="m 90.732206,227.41458 c 0,2.13152 -1.72793,3.85945 -3.85945,3.85945 -2.13151,0 -3.85945,-1.72793 -3.85945,-3.85945 0,-2.13152 1.72794,-2.3037 3.85945,-2.3037 2.13152,0 3.85945,0.17218 3.85945,2.3037 z"
       id="path4730"
       inkscape:connector-curvature="0"
       sodipodi:nodetypes="scsss"
       inkscape:export-xdpi="307.07611"
       inkscape:export-ydpi="307.07611" />
    <rect
       inkscape:export-ydpi="307.07611"
       inkscape:export-xdpi="307.07611"
       ry="3.0132201"
       y="235.93723"
       x="78.482368"
       height="17.045345"
       width="16.780764"
       id="rect4732"
       style="opacity:1;fill:#ffffff;fill-opacity:1;fill-rule:nonzero;stroke:#000000;stroke-width:0.15256965;stroke-linecap:round;stroke-miterlimit:4;stroke-dasharray:none;stroke-opacity:1" />
    <rect
       inkscape:export-ydpi="307.07611"
       inkscape:export-xdpi="307.07611"
       ry="3.0132201"
       y="150.71048"
       x="61.701607"
       height="17.045345"
       width="16.780764"
       id="rect4734"
       style="opacity:1;fill:#ffffff;fill-opacity:1;fill-rule:nonzero;stroke:#000000;stroke-width:0.15256965;stroke-linecap:round;stroke-miterlimit:4;stroke-dasharray:none;stroke-opacity:1" />
    <path
       inkscape:export-ydpi="307.07611"
       inkscape:export-xdpi="307.07611"
       sodipodi:nodetypes="sssss"
       inkscape:connector-curvature="0"
       id="path4746"
       d="m 73.831776,208.81348 c 0,2.13152 -1.60826,5.4152 -3.73978,5.4152 -2.13151,0 -4.69716,-0.17219 -4.69716,-2.3037 0,-2.13152 2.08696,-6.97095 4.69716,-5.4152 1.83097,1.0913 3.73978,0.17219 3.73978,2.3037 z"
       style="opacity:1;fill:#a05a2c;fill-opacity:1;fill-rule:nonzero;stroke:#000000;stroke-width:0.26458332;stroke-linecap:round;stroke-miterlimit:4;stroke-dasharray:none;stroke-opacity:1" />
    <path
       inkscape:export-ydpi="307.07611"
       inkscape:export-xdpi="307.07611"
       style="opacity:1;fill:#c87137;fill-opacity:1;fill-rule:nonzero;stroke:#000000;stroke-width:0.15602422;stroke-linecap:round;stroke-miterlimit:4;stroke-dasharray:none;stroke-opacity:1"
       d="m 74.669896,213.77369 c -1.22696,0.66785 -3.52508,0.94717 -4.06579,-0.0462 -0.5407,-0.99337 -1.09243,-2.24301 0.13452,-2.91086 1.22696,-0.66785 4.54205,-1.21153 4.30865,0.49238 -0.16371,1.19523 0.84957,1.79684 -0.37738,2.46468 z"
       id="path4748"
       inkscape:connector-curvature="0"
       sodipodi:nodetypes="sssss" />
    <path
       inkscape:export-ydpi="307.07611"
       inkscape:export-xdpi="307.07611"
       sodipodi:nodetypes="scsss"
       inkscape:connector-curvature="0"
       id="path4750"
       d="m 73.951446,227.41458 c 0,2.13152 -1.72793,3.85945 -3.85945,3.85945 -2.13151,0 -3.85945,-1.72793 -3.85945,-3.85945 0,-2.13152 1.72794,-2.3037 3.85945,-2.3037 2.13152,0 3.85945,0.17218 3.85945,2.3037 z"
       style="opacity:1;fill:#ddff55;fill-opacity:1;fill-rule:nonzero;stroke:#000000;stroke-width:0.26458332;stroke-linecap:round;stroke-miterlimit:4;stroke-dasharray:none;stroke-opacity:1" />
    <rect
       style="opacity:1;fill:#ffffff;fill-opacity:1;fill-rule:nonzero;stroke:#000000;stroke-width:0.15256965;stroke-linecap:round;stroke-miterlimit:4;stroke-dasharray:none;stroke-opacity:1"
       id="rect4752"
       width="16.780764"
       height="17.045345"
       x="61.701607"
       y="235.93723"
       ry="3.0132201"
       inkscape:export-xdpi="307.07611"
       inkscape:export-ydpi="307.07611" />
    <rect
       inkscape:export-ydpi="307.07611"
       inkscape:export-xdpi="307.07611"
       ry="3.0132201"
       y="150.71048"
       x="44.920845"
       height="17.045345"
       width="16.780764"
       id="rect4754"
       style="opacity:1;fill:#ffffff;fill-opacity:1;fill-rule:nonzero;stroke:#000000;stroke-width:0.15256965;stroke-linecap:round;stroke-miterlimit:4;stroke-dasharray:none;stroke-opacity:1" />
    <path
       inkscape:export-ydpi="307.07611"
       inkscape:export-xdpi="307.07611"
       sodipodi:nodetypes="scccs"
       inkscape:connector-curvature="0"
       id="path4766"
       d="m 56.833561,209.03094 -0.151769,5.36083 -7.252259,-0.23787 0.674239,-7.26357 c 0,0 6.767259,0.81706 6.729789,2.14061 z"
       style="opacity:1;fill:#666666;fill-opacity:1;fill-rule:nonzero;stroke:#000000;stroke-width:0.26458332;stroke-linecap:round;stroke-miterlimit:4;stroke-dasharray:none;stroke-opacity:1" />
    <path
       inkscape:export-ydpi="307.07611"
       inkscape:export-xdpi="307.07611"
       sodipodi:nodetypes="scsss"
       inkscape:connector-curvature="0"
       id="path4770"
       d="m 57.170686,227.41458 c 0,2.13152 -1.72793,3.85945 -3.85945,3.85945 -2.13151,0 -3.85945,-1.72793 -3.85945,-3.85945 0,-2.13152 1.72794,-2.3037 3.85945,-2.3037 2.13152,0 3.85945,0.17218 3.85945,2.3037 z"
       style="opacity:1;fill:#ff00ff;fill-opacity:1;fill-rule:nonzero;stroke:#000000;stroke-width:0.26458332;stroke-linecap:round;stroke-miterlimit:4;stroke-dasharray:none;stroke-opacity:1" />
    <rect
       style="opacity:1;fill:#ffffff;fill-opacity:1;fill-rule:nonzero;stroke:#000000;stroke-width:0.15256965;stroke-linecap:round;stroke-miterlimit:4;stroke-dasharray:none;stroke-opacity:1"
       id="rect4772"
       width="16.780764"
       height="17.045345"
       x="44.920845"
       y="235.93723"
       ry="3.0132201"
       inkscape:export-xdpi="307.07611"
       inkscape:export-ydpi="307.07611" />
    <rect
       style="opacity:1;fill:#ffffff;fill-opacity:1;fill-rule:nonzero;stroke:#000000;stroke-width:0.15256965;stroke-linecap:round;stroke-miterlimit:4;stroke-dasharray:none;stroke-opacity:1"
       id="rect4774"
       width="16.780764"
       height="17.045345"
       x="28.140083"
       y="150.71048"
       ry="3.0132201"
       inkscape:export-xdpi="307.07611"
       inkscape:export-ydpi="307.07611" />
    <path
       style="opacity:1;fill:#999999;fill-opacity:1;fill-rule:nonzero;stroke:#000000;stroke-width:0.26458332;stroke-linecap:round;stroke-miterlimit:4;stroke-dasharray:none;stroke-opacity:1"
       d="m 40.270256,208.81348 c 0,2.13152 -1.60826,5.4152 -3.73978,5.4152 -2.13151,0 -4.69716,-0.17219 -4.69716,-2.3037 0,-2.13152 2.08696,-6.97095 4.69716,-5.4152 1.83097,1.0913 3.73978,0.17219 3.73978,2.3037 z"
       id="path4786"
       inkscape:connector-curvature="0"
       sodipodi:nodetypes="sssss"
       inkscape:export-xdpi="307.07611"
       inkscape:export-ydpi="307.07611" />
    <path
       sodipodi:nodetypes="sssss"
       inkscape:connector-curvature="0"
       id="path4788"
       d="m 41.108376,213.77369 c -1.22696,0.66785 -3.52508,0.94717 -4.06579,-0.0462 -0.5407,-0.99337 -1.09243,-2.24301 0.13452,-2.91086 1.22696,-0.66785 4.54205,-1.21153 4.30865,0.49238 -0.16371,1.19523 0.84957,1.79684 -0.37738,2.46468 z"
       style="opacity:1;fill:#b3b3b3;fill-opacity:1;fill-rule:nonzero;stroke:#000000;stroke-width:0.15602422;stroke-linecap:round;stroke-miterlimit:4;stroke-dasharray:none;stroke-opacity:1"
       inkscape:export-xdpi="307.07611"
       inkscape:export-ydpi="307.07611" />
    <path
       style="opacity:1;fill:#ff2a2a;fill-opacity:1;fill-rule:nonzero;stroke:#000000;stroke-width:0.26458332;stroke-linecap:round;stroke-miterlimit:4;stroke-dasharray:none;stroke-opacity:1"
       d="m 40.389926,227.41458 c 0,2.13152 -1.72793,3.85945 -3.85945,3.85945 -2.13151,0 -3.85945,-1.72793 -3.85945,-3.85945 0,-2.13152 1.72794,-2.3037 3.85945,-2.3037 2.13152,0 3.85945,0.17218 3.85945,2.3037 z"
       id="path4790"
       inkscape:connector-curvature="0"
       sodipodi:nodetypes="scsss"
       inkscape:export-xdpi="307.07611"
       inkscape:export-ydpi="307.07611" />
    <rect
       inkscape:export-ydpi="307.07611"
       inkscape:export-xdpi="307.07611"
       ry="3.0132201"
       y="235.93723"
       x="28.140083"
       height="17.045345"
       width="16.780764"
       id="rect4792"
       style="opacity:1;fill:#ffffff;fill-opacity:1;fill-rule:nonzero;stroke:#000000;stroke-width:0.15256965;stroke-linecap:round;stroke-miterlimit:4;stroke-dasharray:none;stroke-opacity:1" />
    <path
       sodipodi:nodetypes="cccc"
       inkscape:connector-curvature="0"
       id="path4851"
       d="m 40.389917,179.7196 h -7.718904 l 3.859452,-6.74803 z"
       style="opacity:1;fill:#c4c4c4;fill-opacity:1;fill-rule:nonzero;stroke:#000000;stroke-width:0.26458332;stroke-linecap:round;stroke-miterlimit:4;stroke-dasharray:none;stroke-opacity:1"
       inkscape:export-xdpi="307.07611"
       inkscape:export-ydpi="307.07611" />
    <path
       style="opacity:1;fill:#ffffff;fill-opacity:1;fill-rule:nonzero;stroke:#000000;stroke-width:0.26458332;stroke-linecap:round;stroke-miterlimit:4;stroke-dasharray:none;stroke-opacity:1"
       d="m 40.391668,179.64015 -3.911807,-1.73964 -3.807097,1.73964 3.859452,-6.74803 z"
       id="path4863"
       inkscape:connector-curvature="0"
       sodipodi:nodetypes="ccccc"
       inkscape:export-xdpi="307.07611"
       inkscape:export-ydpi="307.07611" />
    <path
       style="opacity:1;fill:#c4c4c4;fill-opacity:1;fill-rule:nonzero;stroke:#000000;stroke-width:0.26458332;stroke-linecap:round;stroke-miterlimit:4;stroke-dasharray:none;stroke-opacity:1"
       d="m 56.998379,174.50664 -5.458089,5.45809 -2.042533,-7.50063 z"
       id="path4919"
       inkscape:connector-curvature="0"
       sodipodi:nodetypes="cccc"
       inkscape:export-xdpi="307.07611"
       inkscape:export-ydpi="307.07611" />
    <path
       sodipodi:nodetypes="ccccc"
       inkscape:connector-curvature="0"
       id="path4921"
       d="m 56.943438,174.44922 -3.996177,1.53595 -1.461913,3.92214 -2.042533,-7.50062 z"
       style="opacity:1;fill:#ffffff;fill-opacity:1;fill-rule:nonzero;stroke:#000000;stroke-width:0.26458332;stroke-linecap:round;stroke-miterlimit:4;stroke-dasharray:none;stroke-opacity:1"
       inkscape:export-xdpi="307.07611"
       inkscape:export-ydpi="307.07611" />
    <path
       sodipodi:nodetypes="cccc"
       inkscape:connector-curvature="0"
       id="path4927"
       d="m 71.863854,179.96565 -5.458089,-5.45809 7.500622,-2.04253 z"
       style="opacity:1;fill:#c4c4c4;fill-opacity:1;fill-rule:nonzero;stroke:#000000;stroke-width:0.26458332;stroke-linecap:round;stroke-miterlimit:4;stroke-dasharray:none;stroke-opacity:1"
       inkscape:export-xdpi="307.07611"
       inkscape:export-ydpi="307.07611" />
    <path
       style="opacity:1;fill:#ffffff;fill-opacity:1;fill-rule:nonzero;stroke:#000000;stroke-width:0.26458332;stroke-linecap:round;stroke-miterlimit:4;stroke-dasharray:none;stroke-opacity:1"
       d="m 71.921272,179.91071 -1.535954,-3.99617 -3.922136,-1.46192 7.500623,-2.04253 z"
       id="path4929"
       inkscape:connector-curvature="0"
       sodipodi:nodetypes="ccccc"
       inkscape:export-xdpi="307.07611"
       inkscape:export-ydpi="307.07611" />
    <rect
       style="opacity:1;fill:none;fill-opacity:1;fill-rule:nonzero;stroke:none;stroke-width:0.15256965;stroke-linecap:round;stroke-miterlimit:4;stroke-dasharray:none;stroke-opacity:1"
       id="rect4933"
       width="16.780764"
       height="17.045345"
       x="78.482368"
       y="184.80118"
       ry="3.0132201"
       inkscape:export-xdpi="307.07611"
       inkscape:export-ydpi="307.07611" />
    <rect
       inkscape:export-ydpi="307.07611"
       inkscape:export-xdpi="307.07611"
       ry="3.0132201"
       y="184.80118"
       x="61.701607"
       height="17.045345"
       width="16.780764"
       id="rect4935"
       style="opacity:1;fill:none;fill-opacity:1;fill-rule:nonzero;stroke:none;stroke-width:0.15256965;stroke-linecap:round;stroke-miterlimit:4;stroke-dasharray:none;stroke-opacity:1" />
    <rect
       inkscape:export-ydpi="307.07611"
       inkscape:export-xdpi="307.07611"
       ry="3.0132201"
       y="184.80118"
       x="44.920845"
       height="17.045345"
       width="16.780764"
       id="rect4937"
       style="opacity:1;fill:none;fill-opacity:1;fill-rule:nonzero;stroke:none;stroke-width:0.15256965;stroke-linecap:round;stroke-miterlimit:4;stroke-dasharray:none;stroke-opacity:1" />
    <rect
       style="opacity:1;fill:none;fill-opacity:1;fill-rule:nonzero;stroke:none;stroke-width:0.15256965;stroke-linecap:round;stroke-miterlimit:4;stroke-dasharray:none;stroke-opacity:1"
       id="rect4939"
       width="16.780764"
       height="17.045345"
       x="28.140083"
       y="184.80118"
       ry="3.0132201"
       inkscape:export-xdpi="307.07611"
       inkscape:export-ydpi="307.07611" />
    <path
       style="opacity:1;fill:#878787;fill-opacity:1;fill-rule:nonzero;stroke:#000000;stroke-width:0.26458332;stroke-linecap:round;stroke-miterlimit:4;stroke-dasharray:none;stroke-opacity:1"
       d="m 40.389917,196.76495 h -7.718904 l 3.859452,-6.74803 z"
       id="path4959"
       inkscape:connector-curvature="0"
       sodipodi:nodetypes="cccc"
       inkscape:export-xdpi="307.07611"
       inkscape:export-ydpi="307.07611" />
    <path
       sodipodi:nodetypes="ccccc"
       inkscape:connector-curvature="0"
       id="path4961"
       d="m 40.391668,196.6855 -3.911807,-1.73964 -3.807097,1.73964 3.859452,-6.74803 z"
       style="opacity:1;fill:#c4c4c4;fill-opacity:1;fill-rule:nonzero;stroke:#000000;stroke-width:0.26458332;stroke-linecap:round;stroke-miterlimit:4;stroke-dasharray:none;stroke-opacity:1"
       inkscape:export-xdpi="307.07611"
       inkscape:export-ydpi="307.07611" />
    <path
       style="opacity:1;fill:#fffffd;fill-opacity:1;fill-rule:nonzero;stroke:#000000;stroke-width:0.26458332;stroke-linecap:round;stroke-miterlimit:4;stroke-dasharray:none;stroke-opacity:1"
       d="m 40.446032,194.23913 -3.911807,-1.73964 -3.807097,1.73964 3.859452,-6.74803 z"
       id="path4971"
       inkscape:connector-curvature="0"
       sodipodi:nodetypes="ccccc"
       inkscape:export-xdpi="307.07611"
       inkscape:export-ydpi="307.07611" />
    <path
       sodipodi:nodetypes="cccc"
       inkscape:connector-curvature="0"
       id="path4978"
       d="m 57.844081,192.43613 -5.458089,5.45809 -2.042534,-7.50062 z"
       style="opacity:1;fill:#878787;fill-opacity:1;fill-rule:nonzero;stroke:#000000;stroke-width:0.26458332;stroke-linecap:round;stroke-miterlimit:4;stroke-dasharray:none;stroke-opacity:1"
       inkscape:export-xdpi="307.07611"
       inkscape:export-ydpi="307.07611" />
    <path
       style="opacity:1;fill:#c4c4c4;fill-opacity:1;fill-rule:nonzero;stroke:#000000;stroke-width:0.26458332;stroke-linecap:round;stroke-miterlimit:4;stroke-dasharray:none;stroke-opacity:1"
       d="m 57.789139,192.37871 -3.996176,1.53596 -1.461913,3.92213 -2.042533,-7.50062 z"
       id="path4980"
       inkscape:connector-curvature="0"
       sodipodi:nodetypes="ccccc"
       inkscape:export-xdpi="307.07611"
       inkscape:export-ydpi="307.07611" />
    <path
       sodipodi:nodetypes="ccccc"
       inkscape:connector-curvature="0"
       id="path4982"
       d="m 56.097736,190.61043 -3.996177,1.53595 -1.461913,3.92213 -2.042533,-7.50062 z"
       style="opacity:1;fill:#ffffff;fill-opacity:1;fill-rule:nonzero;stroke:#000000;stroke-width:0.26458332;stroke-linecap:round;stroke-miterlimit:4;stroke-dasharray:none;stroke-opacity:1"
       inkscape:export-xdpi="307.07611"
       inkscape:export-ydpi="307.07611" />
    <path
       style="opacity:1;fill:#878787;fill-opacity:1;fill-rule:nonzero;stroke:#000000;stroke-width:0.26458332;stroke-linecap:round;stroke-miterlimit:4;stroke-dasharray:none;stroke-opacity:1"
       d="m 70.979708,197.8567 -5.45809,-5.45809 7.500623,-2.04253 z"
       id="path4986"
       inkscape:connector-curvature="0"
       sodipodi:nodetypes="cccc"
       inkscape:export-xdpi="307.07611"
       inkscape:export-ydpi="307.07611" />
    <path
       sodipodi:nodetypes="ccccc"
       inkscape:connector-curvature="0"
       id="path4988"
       d="m 71.037125,197.80176 -1.535954,-3.99618 -3.922135,-1.46191 7.500622,-2.04253 z"
       style="opacity:1;fill:#c4c4c4;fill-opacity:1;fill-rule:nonzero;stroke:#000000;stroke-width:0.26458332;stroke-linecap:round;stroke-miterlimit:4;stroke-dasharray:none;stroke-opacity:1"
       inkscape:export-xdpi="307.07611"
       inkscape:export-ydpi="307.07611" />
    <path
       style="opacity:1;fill:#ffffff;fill-opacity:1;fill-rule:nonzero;stroke:#000000;stroke-width:0.26458332;stroke-linecap:round;stroke-miterlimit:4;stroke-dasharray:none;stroke-opacity:1"
       d="m 72.805411,196.11036 -1.535954,-3.99618 -3.922135,-1.46191 7.500622,-2.04253 z"
       id="path4990"
       inkscape:connector-curvature="0"
       sodipodi:nodetypes="ccccc"
       inkscape:export-xdpi="307.07611"
       inkscape:export-ydpi="307.07611" />
    <path
       style="opacity:1;fill:#262626;fill-opacity:1;fill-rule:nonzero;stroke:#000000;stroke-width:0.06139361;stroke-linecap:round;stroke-miterlimit:4;stroke-dasharray:none;stroke-opacity:1"
       d="m 53.836339,208.85781 -0.03132,1.39858 -1.496717,-0.0621 0.139149,-1.89498 c 0,0 1.396623,0.21316 1.38889,0.55846 z"
       id="path5024"
       inkscape:connector-curvature="0"
       sodipodi:nodetypes="scccs"
       inkscape:export-xdpi="307.07611"
       inkscape:export-ydpi="307.07611" />
    <path
       style="opacity:1;fill:#a05a2c;fill-opacity:1;fill-rule:nonzero;stroke:#000000;stroke-width:0.05505846;stroke-linecap:round;stroke-miterlimit:4;stroke-dasharray:none;stroke-opacity:1"
       d="m 53.641928,213.08331 -0.02782,1.26665 -1.32914,-0.0562 0.12357,-1.71623 c 0,0 1.240252,0.19305 1.233385,0.50578 z"
       id="path5026"
       inkscape:connector-curvature="0"
       sodipodi:nodetypes="scccs"
       inkscape:export-xdpi="307.07611"
       inkscape:export-ydpi="307.07611" />
    <ellipse
       style="opacity:1;fill:#ffeeaa;fill-opacity:1;fill-rule:nonzero;stroke:none;stroke-width:100;stroke-linecap:round;stroke-miterlimit:4;stroke-dasharray:none;stroke-opacity:1"
       id="path5028"
       cx="53.064228"
       cy="209.88864"
       rx="0.3753826"
       ry="0.45545429"
       inkscape:export-xdpi="307.07611"
       inkscape:export-ydpi="307.07611" />
    <path
       style="fill:#0000ff;stroke:#0000ff;stroke-width:0.26458332px;stroke-linecap:butt;stroke-linejoin:miter;stroke-opacity:1"
       d="m 53.021764,209.6292 c -0.13548,0.13759 -0.395087,0.0462 -0.444906,-0.13124 0.04308,-0.18372 0.278628,-0.0807 0.411657,-0.12116 0.210549,-0.0211 0.464382,-0.0605 0.630577,0.10368 0.151128,0.16455 0.216882,0.38942 0.255889,0.60465 0.05429,0.36486 -0.05846,0.7553 -0.320445,1.01887 -0.178784,0.22125 -0.481686,0.24227 -0.73456,0.32244 -0.163906,0.0593 -0.285924,0.23864 -0.250545,0.41333 0.0676,0.18265 0.260491,0.0835 0.385748,0.0366 0.0755,-0.0271 0.280335,-0.003 0.11062,0.0454 -0.148318,0.0537 -0.267523,0.16474 -0.422835,0.20272 -0.180176,0.0628 -0.414045,0.0437 -0.530639,-0.12499 -0.135765,-0.16983 -0.156337,-0.43129 -0.0121,-0.60331 0.138544,-0.18671 0.357604,-0.27932 0.559977,-0.37766 0.267904,-0.16933 0.555764,-0.33774 0.730414,-0.61137 0.01274,-0.21649 0.122811,-0.44362 0.02432,-0.65437 -0.08296,-0.13404 -0.259385,-0.10622 -0.393169,-0.12362 z"
       id="path5030"
       inkscape:connector-curvature="0"
       inkscape:export-xdpi="307.07611"
       inkscape:export-ydpi="307.07611" />
    <ellipse
       style="opacity:1;fill:#000000;fill-opacity:1;fill-rule:nonzero;stroke:#000000;stroke-width:0.07260704;stroke-linecap:round;stroke-miterlimit:4;stroke-dasharray:none;stroke-opacity:1"
       id="path1695"
       cx="52.846073"
       cy="209.93718"
       rx="0.024551982"
       ry="0.031371977"
       inkscape:export-xdpi="307.07611"
       inkscape:export-ydpi="307.07611" />
    <ellipse
       ry="0.031371977"
       rx="0.024551982"
       cy="209.90736"
       cx="53.039921"
       id="ellipse1697"
       style="opacity:1;fill:#000000;fill-opacity:1;fill-rule:nonzero;stroke:#000000;stroke-width:0.07260704;stroke-linecap:round;stroke-miterlimit:4;stroke-dasharray:none;stroke-opacity:1"
       inkscape:export-xdpi="307.07611"
       inkscape:export-ydpi="307.07611" />
    <path
       style="opacity:1;fill:#ff1a1a;fill-opacity:1;fill-rule:nonzero;stroke:none;stroke-width:0.26458332;stroke-linecap:round;stroke-miterlimit:4;stroke-dasharray:none;stroke-opacity:1"
       d="m 53.035667,210.12445 c 0.0093,0.0358 -0.02369,0.0707 -0.07422,0.0753 -0.03898,-0.002 -0.05806,-0.0464 -0.05805,-0.0637 0.008,0.007 0.12527,0.0156 0.132274,-0.0115 z"
       id="ellipse1699"
       inkscape:connector-curvature="0"
       sodipodi:nodetypes="cccc"
       inkscape:export-xdpi="307.07611"
       inkscape:export-ydpi="307.07611" />
  </g>
</svg>
